{
  "project_info": {
    "project_number": "1059185562886",
    "firebase_url": "https://runapp-be0ad.firebaseio.com",
    "project_id": "runapp-be0ad",
    "storage_bucket": "runapp-be0ad.appspot.com"
  },
  "client": [
    {
      "client_info": {
        "mobilesdk_app_id": "1:1059185562886:android:d3a810114cb8116b",
        "android_client_info": {
          "package_name": "com.example.iksf.runapp"
        }
      },
      "oauth_client": [
        {
          "client_id": "1059185562886-ktl4kvgku90friaujkf69hrubdh6l1jp.apps.googleusercontent.com",
          "client_type": 3
        }
      ],
      "api_key": [
        {
          "current_key": "AIzaSyBFftT0jzAei22k6uhSOCKVzN9DK_JsMi8"
        }
      ],
      "services": {
        "analytics_service": {
          "status": 1
        },
        "appinvite_service": {
          "status": 1,
          "other_platform_oauth_client": []
        },
        "ads_service": {
          "status": 2
        }
      }
    }
  ],
  "configuration_version": "1"
}